Wikidata for data journalism (with R and ‘tidywikidatar’)
…
---
# What about qualifiers?

e.g. when did member states join the EU? 

https://www.wikidata.org/wiki/Q458#P150

```r
tw_get_qualifiers(id = "Q458", # European Union
                  p = "P150") # contains administrative territorial entity
```

```
## # A tibble: 37 × 8
##    id    property qualifier_id qualifier_prope… qualifier_value qualifier_value…
##    <chr> <chr>    <chr>        <chr>            <chr>           <chr>           
##  1 Q458  P150     Q31          P580             +1958-01-01T00… time            
##  2 Q458  P150     Q183         P580             +1958-01-01T00… time            
##  3 Q458  P150     Q142         P580             +1958-01-01T00… time            
##  4 Q458  P150     Q142         P1012            Q3769           wikibase-entity…
##  5 Q458  P150     Q142         P1012            Q17012          wikibase-entity…
##  6 Q458  P150     Q142         P1012            Q17054          wikibase-entity…
##  7 Q458  P150     Q142         P1012            Q17063          wikibase-entity…
##  8 Q458  P150     Q142         P1012            Q17070          wikibase-entity…
##  9 Q458  P150     Q142         P1012            Q126125         wikibase-entity…
## 10 Q458  P150     Q38          P580             +1958-01-01T00… time            
## # … with 27 more rows, and 2 more variables: rank <chr>, set <dbl>
```

---
# What about qualifiers?

```r
tw_get_qualifiers(id = "Q458", # European Union
                  p = "P150") %>% # contains administrative territorial entity 
  filter(qualifier_property == "P580") %>% # keep only "start time"
* transmute(country = tw_get_label(qualifier_id),
*           start_time = qualifier_value)
```

```
## # A tibble: 28 × 2
##    country                    start_time           
##    <chr>                      <chr>                
##  1 Belgium                    +1958-01-01T00:00:00Z
##  2 Germany                    +1958-01-01T00:00:00Z
##  3 France                     +1958-01-01T00:00:00Z
##  4 Italy                      +1958-01-01T00:00:00Z
##  5 Luxembourg                 +1958-01-01T00:00:00Z
##  6 Kingdom of the Netherlands +1958-01-01T00:00:00Z
##  7 Denmark                    +1973-01-01T00:00:00Z
##  8 Republic of Ireland        +1973-01-01T00:00:00Z
##  9 Greece                     +1981-01-01T00:00:00Z
## 10 Portugal                   +1986-01-01T00:00:00Z
## # … with 18 more rows
```
…
```r
pob_df <- df %>% 
  select(qid) %>% 
  mutate(name = tw_get_label(qid)) %>%
  mutate(place_of_birth_id = tw_get_p(id = qid, p = "P19",only_first = TRUE)) %>%
  mutate(place_of_birth = tw_get_label(place_of_birth_id)) %>%
  mutate(place_of_birth_coordinates = tw_get_p(id = place_of_birth_id,
                                               p = "P625",
                                               only_first = TRUE))
pob_df
```

```
## # A tibble: 36 × 5
##    qid       name               place_of_birth_… place_of_birth place_of_birth_…
##    <chr>     <chr>              <chr>            <chr>          <chr>           
##  1 Q359875   Adnkronos          <NA>             <NA>           <NA>            
##  2 Q14636378 Alberto Airola     Q9474            Moncalieri     45,7.683333     
##  3 Q3609233  Aldo Giannuli      Q3519            Bari           41.125277777778…
##  4 Q346945   Alessandro Altobe… Q128211          Sonnino        41.414458333333…
##  5 Q960451   Alessandro Barbero Q495             Turin          45.066666666667…
##  6 Q19357364 Carlo Nordio       Q5475            Treviso        45.672219444444…
##  7 Q180661   Dino Zoff          Q53131           Mariano del F… 45.916666666667…
##  8 Q3713005  Domenico de Masi   Q277969          Rotello        41.7475,15.0041…
##  9 Q3723207  Elisabetta Belloni Q220             Rome           41.893055555556…
## 10 Q726247   Franco Grillini    Q94979           Pianoro        44.383333333333…
## # … with 26 more rows
```
…
---
### Back and forth between Wikidata and Wikipedia

This gets the Q identifier of all pages linked from a the Wikipedia page of a given Q identifier. Easy peasy :-)

```r
president_df %>% 
  tw_get_wikipedia(language = "it") %>% # gets url of Wikipedia page from QID
  tw_get_wikipedia_page_links(language = "it") %>% 
  select(wikipedia_title, qid) 
```

```
## # A tibble: 491 × 2
##    wikipedia_title                             qid  
##    <chr>                                       <chr>
##  1 Fabio Vander                                <NA> 
##  2 Ordine per Meriti Eccezionali               <NA> 
##  3 Discussioni template:Capi di Stato d'Europa <NA> 
##  4 1941                                        Q5231
##  5 1987                                        Q2429
##  6 1989                                        Q2425
##  7 1990                                        Q2064
##  8 1998                                        Q2089
##  9 1999                                        Q2091
## 10 2001                                        Q1988
## # … with 481 more rows
```
…
